module whim

go 1.16

require (
	github.com/dgrijalva/jwt-go v3.2.0+incompatible
	github.com/gin-gonic/gin v1.7.2
	github.com/go-sql-driver/mysql v1.6.0
	github.com/joho/godotenv v1.3.0
	golang.org/x/crypto v0.0.0-20200622213623-75b288015ac9
)
